<?xml version="1.0" encoding="UTF-8" standalone="no"?>
<!DOCTYPE svg PUBLIC "-//W3C//DTD SVG 1.1//EN"
 "http://www.w3.org/Graphics/SVG/1.1/DTD/svg11.dtd">
<!-- Generated by graphviz version 2.42.3 (20191010.1750)
 -->
<!-- Title: include/mymath.h Pages: 1 -->
<svg width="166pt" height="82pt"
 viewBox="0.00 0.00 165.91 82.00" xmlns="http://www.w3.org/2000/svg" xmlns:xlink="http://www.w3.org/1999/xlink">
<g id="graph0" class="graph" transform="scale(1 1) rotate(0) translate(4 78)">
<title>include/mymath.h</title>
<polygon fill="white" stroke="transparent" points="-4,4 -4,-78 161.91,-78 161.91,4 -4,4"/>
<!-- Node1 -->
<g id="node1" class="node">
<title>Node1</title>
<g id="a_node1"><a xlink:title=" ">
<polygon fill="#bfbfbf" stroke="black" points="33.16,-55.5 33.16,-73.5 127.53,-73.5 127.53,-55.5 33.16,-55.5"/>
<text text-anchor="middle" x="80.34" y="-61.5" font-family="Helvetica,sans-Serif" font-size="10.00">include/mymath.h</text>
</a>
</g>
</g>
<!-- Node2 -->
<g id="node2" class="node">
<title>Node2</title>
<g id="a_node2"><a xlink:href="main_8cpp.html" target="_top" xlink:title=" ">
<polygon fill="white" stroke="black" points="0,-0.5 0,-18.5 72.68,-18.5 72.68,-0.5 0,-0.5"/>
<text text-anchor="middle" x="36.34" y="-6.5" font-family="Helvetica,sans-Serif" font-size="10.00">src/main.cpp</text>
</a>
</g>
</g>
<!-- Node1&#45;&gt;Node2 -->
<g id="edge1" class="edge">
<title>Node1&#45;&gt;Node2</title>
<path fill="none" stroke="midnightblue" d="M66.85,-47.24C58.95,-37.73 49.32,-26.14 43.02,-18.55"/>
<polygon fill="midnightblue" stroke="midnightblue" points="64.39,-49.76 73.47,-55.22 69.77,-45.29 64.39,-49.76"/>
</g>
<!-- Node3 -->
<g id="node3" class="node">
<title>Node3</title>
<g id="a_node3"><a xlink:href="test_8cpp.html" target="_top" xlink:title="Tests for dummy Math class.">
<polygon fill="white" stroke="black" points="90.78,-0.5 90.78,-18.5 157.91,-18.5 157.91,-0.5 90.78,-0.5"/>
<text text-anchor="middle" x="124.34" y="-6.5" font-family="Helvetica,sans-Serif" font-size="10.00">src/test.cpp</text>
</a>
</g>
</g>
<!-- Node1&#45;&gt;Node3 -->
<g id="edge2" class="edge">
<title>Node1&#45;&gt;Node3</title>
<path fill="none" stroke="midnightblue" d="M93.84,-47.24C101.74,-37.73 111.36,-26.14 117.66,-18.55"/>
<polygon fill="midnightblue" stroke="midnightblue" points="90.91,-45.29 87.22,-55.22 96.3,-49.76 90.91,-45.29"/>
</g>
</g>
</svg>
